18.1 - Intro to R
…
    setwd('..')
    getwd() # "/Users/alice"

    setwd('/Users/alice/Movies')
    getwd() # "/Users/alice/Movies"

  Reading a CSV

    # While in the directory containing the file `data.csv`:
    sampleCsv <- read_csv('data.csv')

    print(sampleCsv)

    # Output:
    # # A tibble: 1,000 x 5
    #   id `First Name` `Last Name` Gender Amount
    # <int> <chr>        <chr>       <chr>   <dbl>
    #    1 Todd         Lopez       M       8068.
    #    2 Joshua       White       M       7330.
    #    3 Mary         Lewis       F      16335
    #    4 Emily        Burns       F      12461.
    #    5 Christina    Romero      F      15272.
    #    6 Raymond      Andrews     M       7037.
    #    7 Sandra       Baker       F      14002.
    #    8 Todd         Diaz        M      10911
    #    9 Alice        Burke       F      14199.
    #   10 Wayne        Richards    M      16410.
    # # ... with 990 more rows
…
